<?xml version="1.0" encoding="UTF-8"?>
<svg width="326px" height="64px" viewBox="0 0 326 64" version="1.1" xmlns="http://www.w3.org/2000/svg" xmlns:xlink="http://www.w3.org/1999/xlink">
    <!-- Generator: Sketch 63.1 (92452) - https://sketch.com -->
    <title>Group 82</title>
    <desc>Created with Sketch.</desc>
    <defs>
        <polygon id="path-1" points="0 0 98.1037 0 98.1037 63.9997252 0 63.9997252"></polygon>
    </defs>
    <g id="Desktop-Xbox" stroke="none" stroke-width="1" fill="none" fill-rule="evenodd">
        <g id="DQ---XBOX-Home" transform="translate(-557.000000, -80.000000)">
            <g id="Group-82" transform="translate(557.000000, 80.000000)">
                <g id="Group-3">
                    <mask id="mask-2" fill="white">
                        <use xlink:href="#path-1"></use>
                    </mask>
                    <g id="Clip-2"></g>
                    <path d="M61.5397,61.9547 C63.1307,61.3997 64.6917,60.7157 66.1477,59.8907 C67.1927,59.3357 68.2367,58.7257 69.2517,58.0747 C77.4417,52.7897 83.6577,46.0467 88.1997,41.1237 C89.5157,39.6957 90.6507,38.4647 91.6827,37.4277 C93.4287,35.6687 95.9067,33.7237 95.9307,33.7037 L98.1037,31.9987 L95.9307,30.2927 C95.9067,30.2727 93.4317,28.3277 91.6837,26.5707 C91.1427,26.0297 90.5767,25.4327 89.9707,24.7857 L90.1457,24.0167 L93.4087,10.1047 L91.8417,9.3517 C81.9837,4.6117 70.4627,1.8147 60.7047,1.7667 L60.6727,1.7607 C56.5387,0.4517 52.2687,-0.0333 49.0537,0.0017 C44.3657,-0.0483 37.4227,1.0027 31.9567,4.1127 C30.9087,4.6657 29.8657,5.2737 28.8537,5.9247 C20.6577,11.2097 14.4397,17.9557 9.8987,22.8807 C8.5877,24.3047 7.4557,25.5347 6.4227,26.5707 C4.6777,28.3277 2.1987,30.2727 2.1757,30.2927 L-0.0003,31.9967 L2.1737,33.7027 C2.1987,33.7237 4.6777,35.6687 6.4207,37.4247 C6.9587,37.9637 7.5237,38.5557 8.1247,39.2017 L7.9767,39.8887 L7.2517,42.9777 L4.7137,53.8017 L6.2827,54.5557 C15.4187,58.9517 25.9947,61.6767 35.2637,62.0877 L37.2987,62.1997 C41.4737,63.5427 45.8047,64.0357 49.0507,63.9977 C52.4407,64.0357 57.0047,63.4967 61.3397,62.0207 L61.5397,61.9547 Z" id="Fill-1" fill="#FFFFFF" mask="url(#mask-2)"></path>
                </g>
                <path d="M90.3771,28.1631 C85.5981,23.3511 78.4761,14.3231 68.1541,7.6691 C67.1741,7.0401 66.1751,6.4551 65.1451,5.9111 C60.2641,3.1331 53.7021,1.9951 48.9961,2.0511 C44.2831,1.9951 37.7201,3.1331 32.8431,5.9111 C31.8141,6.4551 30.8071,7.0401 29.8341,7.6691 C19.5141,14.3231 12.3901,23.3511 7.6141,28.1631 C5.7331,30.0541 3.1301,32.0911 3.1301,32.0911 C3.1301,32.0911 5.7331,34.1281 7.6111,36.0181 C12.3901,40.8271 19.5111,49.8571 29.8341,56.5121 C30.8071,57.1391 31.8141,57.7251 32.8431,58.2711 C37.7201,61.0471 44.2791,62.1851 48.9921,62.1291 C53.7021,62.1851 60.2641,61.0471 65.1451,58.2711 C66.1751,57.7251 67.1741,57.1391 68.1541,56.5121 C78.4721,49.8571 85.5981,40.8271 90.3751,36.0181 C92.2541,34.1281 94.8591,32.0911 94.8591,32.0911 C94.8591,32.0911 92.2601,30.0541 90.3771,28.1631" id="Fill-4" fill="#EE3D42"></path>
                <path d="M30.1715,41.7159 C30.8675,41.8359 31.5595,41.9149 32.9305,41.9149 C39.6855,41.9149 41.4235,26.1499 41.2005,23.6869 C40.8915,20.3129 39.2875,19.7569 37.5965,19.7569 L35.3725,19.7569 L30.1715,41.7159 Z M23.0995,16.9359 L36.5755,16.9359 C45.3175,16.9359 51.3435,19.3589 50.4095,27.7979 C49.4695,36.2389 45.4865,44.7349 34.2695,44.7349 L18.5185,44.7349 L19.0645,42.2329 L20.4225,41.9949 L25.7305,19.6779 L22.5475,19.3989 L23.0995,16.9359 Z" id="Fill-6" fill="#FFFFFF"></path>
                <path d="M66.4967,38.5987 C65.1567,37.6777 63.4967,37.2557 61.8677,37.1547 L61.2257,39.9327 C62.6337,40.1257 63.2367,40.8597 63.7727,41.9327 C63.2957,42.2507 62.8067,42.4107 62.2617,42.4107 C59.6587,42.4107 58.5727,40.9797 58.4097,39.1157 C58.1457,36.0977 60.9567,19.0597 66.4847,19.0597 C69.0877,19.0597 70.1677,20.4907 70.3317,22.3577 C70.5147,24.4607 69.1917,33.3967 66.4967,38.5987 L66.4967,38.5987 Z M76.8627,44.6887 C76.1167,45.0067 75.3227,45.3647 74.4567,45.3647 C72.2187,45.3647 72.2187,44.5567 71.1787,43.0867 C76.7537,39.9887 80.1967,33.6837 80.1967,26.4307 C80.1967,19.8547 75.0767,16.2407 66.5437,16.2407 C57.0347,16.2407 49.1587,24.9977 48.9117,33.6837 C48.7007,41.0477 52.3237,45.3447 62.6887,45.2307 C63.4607,45.2227 64.2807,45.1897 65.0477,45.0707 C66.3247,48.1687 67.3257,49.4937 71.5267,49.4937 C73.1707,49.4937 74.8057,49.0797 76.1627,48.3287 L76.9017,45.1277 L76.8627,44.6887 Z" id="Fill-8" fill="#FFFFFF"></path>
                <path d="M89.1452,20.3165 C78.8532,13.2385 62.6342,8.0065 49.4592,8.3025 C43.9332,8.4235 38.7022,9.3045 34.0062,10.7825 C40.6182,6.6025 49.6072,3.9325 59.5402,3.7125 C69.7202,3.4845 81.6562,6.4835 91.3002,11.1225 L89.1452,20.3165 Z" id="Fill-10" fill="#FAAA53"></path>
                <path d="M8.8434,43.8638 C19.1324,50.9428 35.3514,56.1768 48.5294,55.8798 C54.0514,55.7568 59.2854,54.8768 63.9824,53.3978 C57.3694,57.5768 48.3784,60.2478 38.4474,60.4688 C28.2674,60.6958 16.3304,57.6968 6.6874,53.0568 L8.8434,43.8638 Z" id="Fill-12" fill="#0079C2"></path>
                <path d="M79.2189,41.4586 C79.5009,41.4586 79.7529,41.4376 79.7529,41.0856 C79.7529,40.8006 79.5079,40.7506 79.2709,40.7506 L78.8199,40.7506 L78.8199,41.4586 L79.2189,41.4586 Z M78.8289,42.7586 L78.4969,42.7586 L78.4969,40.4686 L79.3319,40.4686 C79.8539,40.4686 80.1089,40.6706 80.1089,41.1186 C80.1089,41.5306 79.8559,41.7036 79.5379,41.7486 L80.1589,42.7586 L79.7909,42.7586 L79.2099,41.7646 L78.8289,41.7646 L78.8289,42.7586 Z M79.2309,43.2656 C80.0939,43.2656 80.7729,42.5596 80.7729,41.6066 C80.7729,40.6706 80.0939,39.9586 79.2309,39.9586 C78.3629,39.9586 77.6789,40.6706 77.6789,41.6066 C77.6789,42.5596 78.3629,43.2656 79.2309,43.2656 L79.2309,43.2656 Z M77.2949,41.6066 C77.2949,40.4686 78.1829,39.6316 79.2309,39.6316 C80.2729,39.6316 81.1589,40.4686 81.1589,41.6066 C81.1589,42.7586 80.2729,43.5926 79.2309,43.5926 C78.1829,43.5926 77.2949,42.7586 77.2949,41.6066 L77.2949,41.6066 Z" id="Fill-14" fill="#FFFFFF"></path>
                <path d="M119.1569,42.0298 C119.7689,42.1378 120.3839,42.2058 121.5909,42.2058 C127.5559,42.2058 129.0949,28.2848 128.8979,26.1128 C128.6259,23.1328 127.2039,22.6388 125.7149,22.6388 L123.7509,22.6388 L119.1569,42.0298 Z M112.9169,20.1518 L124.8109,20.1518 C132.5349,20.1518 137.8539,22.2938 137.0319,29.7408 C136.1979,37.1968 132.6769,44.6948 122.7759,44.6948 L108.8649,44.6948 L109.3479,42.4868 L110.5489,42.2778 L115.2389,22.5738 L112.4289,22.3268 L112.9169,20.1518 Z" id="Fill-16" fill="#FFFFFF"></path>
                <path d="M120.8996,40.7901 C121.1046,40.7951 121.3316,40.7981 121.5906,40.7981 C122.3416,40.7981 123.0326,40.4391 123.7096,39.7031 C126.7336,36.3911 127.6266,27.6721 127.4936,26.2391 C127.2906,24.0471 126.5276,24.0471 125.7146,24.0471 L124.8656,24.0471 L120.8996,40.7901 Z M127.9506,21.7081 C129.3156,22.3941 130.1006,23.8241 130.2976,25.9831 C130.4806,27.9771 129.5046,37.5291 125.7846,41.6031 C125.0646,42.3911 124.2796,42.9491 123.4376,43.2751 C132.2696,42.9311 134.9486,35.6861 135.6286,29.5831 C135.8916,27.2051 135.4776,25.4451 134.3666,24.2021 C133.1456,22.8461 131.0386,22.0221 127.9506,21.7081 L127.9506,21.7081 Z M111.5356,43.2861 L118.5176,43.2861 C118.3046,43.1771 118.1166,43.0121 117.9836,42.8061 C117.7706,42.4811 117.6936,42.0861 117.7886,41.7041 L122.3796,22.3161 C122.4546,22.0141 122.6206,21.7531 122.8476,21.5611 L116.2176,21.5611 C116.2786,21.6191 116.3316,21.6821 116.3796,21.7531 C116.6216,22.0811 116.7086,22.5011 116.6086,22.9011 L111.9216,42.6061 C111.8586,42.8681 111.7196,43.1021 111.5356,43.2861 L111.5356,43.2861 Z M122.7756,46.1041 L108.8646,46.1041 C108.4346,46.1041 108.0346,45.9101 107.7626,45.5781 C107.4966,45.2461 107.3966,44.8081 107.4906,44.3921 L107.9716,42.1841 C108.0976,41.6261 108.5456,41.1981 109.1086,41.1011 L109.3936,41.0501 L113.4906,23.8351 L112.3036,23.7301 C111.8996,23.6941 111.5286,23.4881 111.2896,23.1561 C111.0506,22.8281 110.9636,22.4161 111.0516,22.0181 L111.5386,19.8431 C111.6856,19.2011 112.2536,18.7451 112.9176,18.7451 L124.8106,18.7451 C130.4946,18.7451 134.3066,19.9151 136.4626,22.3241 C138.1186,24.1721 138.7786,26.7201 138.4286,29.8961 C137.2626,40.3481 131.7066,46.1041 122.7756,46.1041 L122.7756,46.1041 Z" id="Fill-18" fill="#FFFFFF"></path>
                <path d="M226.3898,39.2774 C225.2108,38.4654 223.7438,38.0934 222.3048,38.0064 L221.7408,40.4574 C222.9878,40.6274 223.5168,41.2734 223.9888,42.2254 C223.5648,42.5054 223.1378,42.6444 222.6568,42.6444 C220.3598,42.6444 219.4018,41.3814 219.2498,39.7314 C219.0188,37.0704 221.5088,22.0294 226.3858,22.0294 C228.6848,22.0294 229.6338,23.2914 229.7778,24.9374 C229.9468,26.7954 228.7728,34.6844 226.3898,39.2774 L226.3898,39.2774 Z M235.5468,44.6544 C234.8848,44.9374 234.1878,45.2534 233.4208,45.2534 C231.4498,45.2534 231.4498,44.5404 230.5248,43.2414 C235.4528,40.5074 238.4878,34.9394 238.4878,28.5334 C238.4878,22.7284 233.9708,19.5404 226.4338,19.5404 C218.0358,19.5404 211.0888,27.2704 210.8688,34.9394 C210.6838,41.4434 213.8858,45.2354 223.0278,45.1334 C223.7158,45.1274 224.4378,45.1024 225.1118,44.9954 C226.2388,47.7284 227.1268,48.9004 230.8368,48.9004 C232.2888,48.9004 233.7288,48.5374 234.9288,47.8714 L235.5798,45.0464 L235.5468,44.6544 Z" id="Fill-20" fill="#FFFFFF"></path>
                <path d="M226.3854,23.4376 C225.9924,23.4376 225.5654,23.6946 225.0974,24.1976 C222.3904,27.1506 220.7824,35.9236 220.6494,38.9206 L220.9364,37.6876 C221.0904,37.0176 221.6834,36.5726 222.3914,36.6016 C223.6114,36.6746 224.7434,36.9266 225.7394,37.3366 C227.5934,32.9116 228.5004,26.4796 228.3794,25.0616 C228.3044,24.2176 228.0114,23.4376 226.3854,23.4376 M224.5274,21.0976 C217.5944,22.1656 212.4514,28.9036 212.2744,34.9836 C212.1974,37.8076 212.8114,39.8516 214.1464,41.2316 C215.4384,42.5586 217.5384,43.3626 220.4014,43.6276 C218.9324,42.9956 218.0144,41.6826 217.8464,39.8616 C217.6574,37.6726 219.2814,26.3736 223.0254,22.2936 C223.5024,21.7746 224.0014,21.3746 224.5274,21.0976 M225.1174,43.5896 C225.6764,43.5896 226.1904,43.9246 226.4124,44.4566 C227.3684,46.7626 227.8124,47.4906 230.8364,47.4906 C231.8254,47.4906 232.8274,47.2866 233.7064,46.9046 L233.7724,46.6486 C233.6514,46.6586 233.5404,46.6616 233.4204,46.6616 C231.2064,46.6616 230.5104,45.8316 229.7714,44.6516 C229.6564,44.4696 229.5314,44.2716 229.3774,44.0536 C229.1434,43.7266 229.0684,43.3176 229.1564,42.9316 C229.2424,42.5396 229.4934,42.2046 229.8414,42.0096 C234.3094,39.5286 237.0764,34.3666 237.0764,28.5336 C237.0764,23.0656 232.5024,21.4526 228.6734,21.0596 C230.1244,21.6976 231.0244,23.0036 231.1834,24.8166 C231.3694,26.9206 230.1884,35.0206 227.6364,39.9286 C227.4544,40.2886 227.1234,40.5516 226.7334,40.6456 C226.3324,40.7416 225.9144,40.6686 225.5904,40.4356 C225.0284,40.0506 224.3274,39.7616 223.5274,39.5896 C224.3934,40.0936 224.8794,40.8586 225.2484,41.5976 C225.5654,42.2326 225.3594,43.0046 224.7644,43.3956 C224.6114,43.5026 224.4524,43.5966 224.2864,43.6756 C224.4944,43.6566 224.6964,43.6336 224.8914,43.6036 C224.9684,43.5936 225.0454,43.5896 225.1174,43.5896 M230.8364,50.3076 C226.9934,50.3076 225.4744,49.0796 224.2374,46.5036 C223.8054,46.5306 223.3964,46.5396 223.0424,46.5416 L222.6754,46.5436 C217.7724,46.5436 214.3184,45.4476 212.1274,43.1886 C210.2314,41.2426 209.3584,38.5286 209.4604,34.9016 C209.7174,25.9696 217.6484,18.1306 226.4334,18.1306 C234.8624,18.1306 239.8994,22.0216 239.8994,28.5336 C239.8994,34.8146 237.0994,40.4706 232.5144,43.6616 C232.6954,43.8456 232.8884,43.8456 233.4204,43.8456 C233.8634,43.8456 234.3694,43.6276 234.9014,43.3996 C235.3154,43.2206 235.8354,43.2336 236.2224,43.4656 C236.6084,43.6976 236.9074,44.0836 236.9484,44.5306 L236.9844,44.9216 C236.9974,45.0666 236.9854,45.2156 236.9544,45.3596 L236.3054,48.1876 C236.2164,48.5776 235.9634,48.9126 235.6104,49.1026 C234.1874,49.8926 232.5354,50.3076 230.8364,50.3076" id="Fill-22" fill="#FFFFFF"></path>
                <path d="M148.3918,36.8697 C146.0118,38.1087 143.3198,37.5077 142.8168,40.0707 C142.6268,41.0497 143.2728,41.7277 144.5568,41.7277 C146.8268,41.7277 148.0068,39.5817 148.3918,36.8697 L148.3918,36.8697 Z M148.9038,44.5527 C147.1558,44.5527 147.4568,42.8027 147.4568,42.8027 C145.2238,44.5227 143.2368,45.0237 140.7948,45.0237 C137.7068,45.0237 135.3048,43.4907 136.0748,40.0847 C137.7688,32.6457 148.7578,36.0367 149.3508,32.9557 C149.7568,30.8597 149.2518,30.4677 147.7758,30.4677 C146.3858,30.4677 145.4168,31.4727 144.8898,33.2107 L138.6348,33.2107 C139.4288,29.7417 142.3508,27.7087 148.8288,27.7087 C156.5788,27.7087 156.3928,30.5827 155.5028,34.4877 L154.2438,40.2457 C154.0258,41.1827 153.8748,42.1607 155.7948,42.3347 L155.2528,44.5527 L148.9038,44.5527 Z" id="Fill-24" fill="#FFFFFF"></path>
                <path d="M140.7379,31.8023 L143.9209,31.8023 C144.6649,30.1523 145.7509,29.4683 146.6879,29.2083 C143.2039,29.5213 141.5609,30.6103 140.7379,31.8023 M147.7759,31.8753 C147.5599,31.8753 146.9499,31.8753 146.4529,33.0383 C147.1779,32.9223 147.8259,32.7773 148.0159,32.5913 C148.0669,32.2633 148.0799,32.0333 148.0829,31.8873 C148.0069,31.8823 147.9039,31.8753 147.7759,31.8753 M144.2079,40.2863 C144.2869,40.3043 144.3989,40.3183 144.5569,40.3183 C145.3699,40.3183 145.9249,39.7723 146.3059,39.0593 C146.2999,39.0593 146.2869,39.0613 146.2829,39.0653 C144.6549,39.4633 144.3519,39.6333 144.2079,40.2863 M148.8469,43.1453 L148.9039,43.1453 L153.7759,43.1453 C153.5359,42.9823 153.3309,42.7863 153.1729,42.5613 C152.4839,41.6153 152.7359,40.5193 152.8689,39.9323 L154.1309,34.1863 C154.5549,32.3063 154.7119,31.0083 154.1679,30.3313 C153.7309,29.7783 152.4419,29.1173 148.8279,29.1173 L148.6769,29.1173 C149.2239,29.2083 149.8639,29.4283 150.3249,29.9883 C151.0669,30.8883 150.9459,32.1323 150.7339,33.2303 C150.4989,34.4513 149.6339,35.0903 148.4739,35.4623 C148.7309,35.4803 148.9879,35.5653 149.2019,35.7193 C149.6339,36.0223 149.8589,36.5433 149.7809,37.0673 C149.5149,38.9773 148.9079,40.4853 148.0309,41.5183 C148.0829,41.5413 148.1349,41.5663 148.1829,41.5973 C148.6789,41.8973 148.9449,42.4693 148.8469,43.0423 C148.8459,43.0653 148.8459,43.1013 148.8469,43.1453 M147.5989,35.6923 C146.8549,35.8483 146.0379,35.9433 145.2089,36.0373 C141.1339,36.5113 138.1959,37.1043 137.4429,40.3983 C137.2359,41.3403 137.3259,42.0723 137.7339,42.5753 C138.2629,43.2343 139.3759,43.6153 140.7949,43.6153 C141.9319,43.6153 142.9869,43.5063 144.0739,43.1123 C143.1819,43.0183 142.4399,42.6563 141.9609,42.0693 C141.4529,41.4563 141.2659,40.6473 141.4309,39.7983 C141.9419,37.2293 144.0599,36.7093 145.6079,36.3263 C146.2799,36.1643 146.9719,35.9913 147.5989,35.6923 M140.7949,46.4323 C138.4829,46.4323 136.6129,45.6843 135.5299,44.3353 C134.8689,43.5033 134.1849,42.0413 134.6989,39.7723 C135.3219,37.0473 136.9589,35.5173 138.8899,34.6163 L138.6349,34.6163 C138.2059,34.6163 137.8049,34.4243 137.5379,34.0903 C137.2699,33.7553 137.1689,33.3163 137.2659,32.9003 C138.2729,28.4583 142.0569,26.2983 148.8279,26.2983 C152.7899,26.2983 155.1159,27.0003 156.3749,28.5743 C157.7529,30.3033 157.3799,32.5963 156.8799,34.8013 L155.6189,40.5453 C155.6039,40.6163 155.5699,40.7533 155.5469,40.8773 C155.6359,40.8993 155.7619,40.9203 155.9269,40.9313 C156.3379,40.9693 156.7079,41.1873 156.9449,41.5183 C157.1829,41.8543 157.2619,42.2743 157.1659,42.6743 L156.6179,44.8923 C156.4609,45.5183 155.8979,45.9633 155.2529,45.9633 L148.9039,45.9633 C147.7289,45.9633 147.0489,45.4483 146.6809,45.0173 C146.6809,45.0133 146.6769,45.0123 146.6759,45.0093 C144.9109,45.9953 143.0699,46.4323 140.7949,46.4323" id="Fill-26" fill="#FFFFFF"></path>
                <path d="M158.9953,44.5528 C156.5183,44.5528 157.1613,42.3738 157.1613,42.3738 L159.8663,30.4798 L158.3903,30.3918 L158.8773,28.1758 L166.8853,28.1758 C166.8853,28.1758 164.0663,40.6138 163.8283,41.6268 C163.6023,42.6368 165.2103,42.5308 165.2103,42.5308 L164.7533,44.5528 L158.9953,44.5528 Z M164.4443,26.3018 C168.2203,26.2868 167.8323,23.7338 167.8323,23.7338 C167.8323,23.7338 168.2403,21.2008 164.4443,21.2008 C160.7113,21.2008 161.0743,23.7338 161.0743,23.7338 C161.0743,23.7338 160.6753,26.3198 164.4443,26.3018 L164.4443,26.3018 Z" id="Fill-28" fill="#FFFFFF"></path>
                <path d="M162.4709,23.9527 C162.4719,23.9527 162.4589,24.2237 162.6469,24.4317 C162.9179,24.7247 163.5609,24.8927 164.4139,24.8927 L164.4139,26.3017 L164.4409,24.8927 C165.3169,24.8897 165.9809,24.7137 166.2599,24.4117 C166.4579,24.1977 166.4369,23.9187 166.4349,23.9057 C166.4229,23.7927 166.4229,23.6237 166.4429,23.5117 C166.4379,23.5117 166.4489,23.2727 166.2719,23.0797 C166.0029,22.7857 165.3339,22.6117 164.4449,22.6117 C163.5639,22.6117 162.9079,22.7887 162.6369,23.0957 C162.4749,23.2867 162.4719,23.5337 162.4719,23.5387 C162.4919,23.6767 162.4919,23.8147 162.4709,23.9527 M158.5139,43.0907 C158.5409,43.0907 158.6849,43.1447 158.9949,43.1447 L162.9089,43.1447 C162.8799,43.1127 162.8499,43.0817 162.8249,43.0487 C162.4429,42.5647 162.3099,41.9497 162.4549,41.3147 C162.6419,40.5307 164.3429,33.0337 165.1229,29.5837 L160.9499,29.5837 C160.9679,29.6017 160.9819,29.6197 160.9919,29.6357 C161.2459,29.9687 161.3309,30.3917 161.2409,30.7937 L158.5359,42.6867 C158.4929,42.8557 158.4849,43.0277 158.5079,43.0947 C158.5079,43.0907 158.5119,43.0907 158.5139,43.0907 M164.7529,45.9627 L158.9949,45.9627 C157.4569,45.9627 156.6509,45.3147 156.2459,44.7717 C155.3649,43.6007 155.7619,42.1397 155.8099,41.9757 L158.1269,31.7737 C157.7889,31.7087 157.4799,31.5197 157.2689,31.2407 C157.0229,30.9117 156.9299,30.4907 157.0169,30.0887 L157.4999,27.8747 C157.6429,27.2287 158.2109,26.7667 158.8779,26.7667 L161.0449,26.7667 C160.8399,26.6137 160.6569,26.4407 160.4909,26.2447 C159.6659,25.2827 159.6319,24.1867 159.6629,23.7237 C159.6409,23.2677 159.6899,22.1957 160.5079,21.2497 C161.3459,20.2867 162.6729,19.7937 164.4449,19.7937 C166.2559,19.7937 167.5979,20.2927 168.4339,21.2737 C169.2389,22.2117 169.2749,23.2797 169.2449,23.7417 C169.2689,24.2027 169.2289,25.2757 168.4149,26.2247 C168.1769,26.5047 167.8999,26.7497 167.5779,26.9497 C167.7329,27.0367 167.8739,27.1547 167.9869,27.2977 C168.2569,27.6317 168.3549,28.0707 168.2619,28.4867 C168.2619,28.4867 166.0629,38.1787 165.3849,41.1567 C165.7179,41.2227 166.0489,41.3947 166.2519,41.6557 C166.5169,41.9887 166.6849,42.4257 166.5879,42.8437 L166.1209,44.8687 C165.9809,45.5077 165.4089,45.9627 164.7529,45.9627" id="Fill-30" fill="#FFFFFF"></path>
                <path d="M169.359,30.3707 L168.059,30.2187 L168.523,28.1757 L175.747,28.1757 L174.993,31.4897 L175.059,31.4897 C176.546,28.9257 178.415,27.7087 180.951,27.7087 C181.231,27.7087 181.501,27.7707 181.773,27.8017 L180.293,34.3067 C179.864,34.2397 179.427,34.1157 178.99,34.1157 C176.335,34.1157 174.712,35.3677 173.901,38.8987 L172.614,44.5527 L166.12,44.5527 L169.359,30.3707 Z" id="Fill-32" fill="#FFFFFF"></path>
                <path d="M167.8839,43.1451 L171.4939,43.1451 L172.5239,38.5841 C173.4439,34.5751 175.4999,32.7051 178.9899,32.7051 C179.0689,32.7051 179.1369,32.7081 179.2079,32.7121 L180.0089,29.1971 C178.4879,29.4621 177.3099,30.4161 176.2789,32.1971 C175.8149,33.0051 174.5089,33.0971 173.9279,32.3701 C173.6609,32.0331 173.5279,31.5961 173.6199,31.1801 L173.9879,29.5831 L170.5359,29.5831 C170.7499,29.9041 170.8219,30.3051 170.7329,30.6851 L167.8839,43.1451 Z M172.6139,45.9631 L166.1199,45.9631 C165.6869,45.9631 165.2859,45.7671 165.0129,45.4311 C164.7489,45.0941 164.6489,44.6581 164.7419,44.2401 L167.6459,31.5621 C167.3479,31.4731 167.0899,31.2841 166.9069,31.0291 C166.6769,30.7041 166.5949,30.2951 166.6879,29.9041 L167.1449,27.8641 C167.2909,27.2241 167.8629,26.7671 168.5229,26.7671 L175.7469,26.7671 C176.1739,26.7671 176.5779,26.9641 176.8439,27.2981 C176.8739,27.3321 176.8979,27.3671 176.9259,27.4051 C178.1009,26.6651 179.4359,26.2981 180.9509,26.2981 C181.2069,26.2981 181.4589,26.3321 181.7129,26.3721 L181.9299,26.4031 C182.3319,26.4471 182.6899,26.6591 182.9229,26.9881 C183.1549,27.3141 183.2319,27.7241 183.1469,28.1141 L181.6639,34.6171 C181.5009,35.3381 180.8109,35.7921 180.0819,35.6971 C179.9239,35.6761 179.7719,35.6461 179.6089,35.6131 C179.4079,35.5731 179.1979,35.5231 178.9899,35.5231 C177.1769,35.5231 175.9819,36.1301 175.2739,39.2111 L173.9879,44.8681 C173.8429,45.5081 173.2729,45.9631 172.6139,45.9631 L172.6139,45.9631 Z" id="Fill-34" fill="#FFFFFF"></path>
                <path d="M256.6486,40.6924 C256.2296,42.5804 258.0686,42.3674 258.0686,42.3674 L257.5666,44.5524 L252.0006,44.5524 C249.6706,44.5524 250.2836,42.1494 250.2836,42.1494 C248.1436,44.4004 246.4106,45.0234 243.7266,45.0234 C240.1616,45.0234 238.3456,42.8324 239.4106,38.1454 L241.1706,30.4004 L239.9356,30.3044 L240.4196,28.1754 L248.1786,28.1754 L246.0486,37.7194 C245.5326,39.9674 246.1556,40.6884 247.7106,40.6884 C249.5866,40.6884 250.5036,39.2824 251.0766,36.7504 L252.9906,28.1754 L259.4926,28.1754 C259.4926,28.1754 257.0686,38.7994 256.6486,40.6924" id="Fill-36" fill="#FFFFFF"></path>
                <path d="M257.902,42.3267 L257.903,42.3297 L257.927,41.0857 C257.882,41.0247 257.827,40.9677 257.774,40.9487 L257.902,42.3267 Z M251.665,43.1067 C251.679,43.1067 251.777,43.1447 252,43.1447 L256.024,43.1447 C255.911,43.0507 255.807,42.9437 255.716,42.8277 C255.366,42.3907 254.999,41.6117 255.271,40.3877 C255.588,38.9707 257.019,32.6707 257.726,29.5837 L254.121,29.5837 L252.452,37.0587 C252.261,37.9097 251.864,39.6277 250.754,40.8207 C250.822,40.8477 250.894,40.8777 250.964,40.9157 C251.523,41.2277 251.802,41.8747 251.645,42.4977 C251.603,42.6977 251.609,43.0127 251.661,43.1067 L251.665,43.1067 Z M242.323,29.5837 C242.55,29.9107 242.635,30.3197 242.545,30.7107 L240.78,38.4577 C240.338,40.4117 240.447,41.8717 241.094,42.6817 C241.589,43.3007 242.475,43.6147 243.727,43.6147 C245.754,43.6147 246.988,43.2307 248.35,42.0537 C248.147,42.0837 247.936,42.0977 247.711,42.0977 C247.27,42.0977 245.926,42.0977 245.08,41.0387 C244.221,39.9577 244.432,38.4487 244.674,37.4087 L246.419,29.5837 L242.323,29.5837 Z M243.727,46.4317 C241.046,46.4317 239.618,45.3477 238.892,44.4387 C237.676,42.9157 237.388,40.6927 238.033,37.8347 L239.447,31.6287 C239.192,31.5317 238.97,31.3677 238.801,31.1437 C238.56,30.8127 238.468,30.3917 238.564,29.9917 L239.046,27.8637 C239.192,27.2237 239.762,26.7667 240.42,26.7667 L248.179,26.7667 C248.609,26.7667 249.012,26.9647 249.281,27.2957 C249.546,27.6277 249.649,28.0647 249.551,28.4837 L247.421,38.0277 C247.247,38.7937 247.271,39.1377 247.294,39.2647 C247.341,39.2557 247.479,39.2777 247.711,39.2777 C248.246,39.2777 249.059,39.2777 249.709,36.4367 L251.621,27.8707 C251.759,27.2247 252.333,26.7667 252.99,26.7667 L259.492,26.7667 C259.923,26.7667 260.327,26.9647 260.592,27.2977 C260.862,27.6337 260.962,28.0707 260.864,28.4897 C260.864,28.4897 258.484,38.9377 258.033,40.9497 C258.446,40.9047 258.84,41.0797 259.137,41.3947 C259.46,41.7397 259.546,42.2227 259.439,42.6797 L258.942,44.8687 C258.795,45.5077 258.224,45.9627 257.567,45.9627 L252,45.9627 C250.604,45.9627 249.837,45.3497 249.437,44.8397 C249.429,44.8257 249.417,44.8097 249.408,44.7997 C247.777,45.9647 246.055,46.4317 243.727,46.4317 L243.727,46.4317 Z" id="Fill-38" fill="#FFFFFF"></path>
                <path d="M197.861,47.5269 C197.281,50.0429 193.935,51.3689 190.164,51.3689 L181.482,51.3689 C181.482,51.3689 181.945,49.6659 182.296,48.4369 C185.278,48.4369 188.87,48.7659 190.74,47.3829 C192.403,46.1539 193.076,42.1489 193.076,42.1489 C190.935,44.4009 189.2,45.0239 186.51,45.0239 C182.948,45.0239 181.132,42.8319 182.199,38.1459 L183.963,30.3999 L182.729,30.3049 L183.21,28.1749 L190.965,28.1749 L188.839,37.7189 C188.326,39.9679 188.943,40.6889 190.507,40.6889 C192.38,40.6889 193.294,39.2829 193.867,36.7499 L195.786,28.1749 L202.286,28.1749 C202.286,28.1749 198.437,45.0089 197.861,47.5269" id="Fill-40" fill="#FFFFFF"></path>
                <path d="M185.1125,29.5836 C185.3445,29.9106 185.4215,30.3186 185.3325,30.7106 L183.5755,38.4576 C183.1335,40.4116 183.2325,41.8726 183.8815,42.6826 C184.3735,43.3006 185.2635,43.6146 186.5095,43.6146 C188.5435,43.6146 189.7835,43.2306 191.1415,42.0536 C190.9425,42.0836 190.7295,42.0986 190.5065,42.0986 C190.0655,42.0986 188.7145,42.0986 187.8675,41.0376 C187.0095,39.9586 187.2265,38.4486 187.4655,37.4066 L189.2095,29.5836 L185.1125,29.5836 Z M183.3315,49.9586 L190.1645,49.9586 C193.5125,49.9586 196.1145,48.8276 196.4875,47.2096 L200.5195,29.5836 L196.9125,29.5836 L195.2365,37.0596 C195.0495,37.9096 194.6565,39.6276 193.5425,40.8186 C193.5965,40.8386 193.6525,40.8646 193.7065,40.8886 C194.2615,41.1676 194.5645,41.7726 194.4645,42.3816 C194.3345,43.1456 193.5945,47.0246 191.5785,48.5196 C189.5925,49.9866 186.5495,49.9176 183.7365,49.8616 C183.6095,49.8616 183.4825,49.8596 183.3595,49.8576 C183.3525,49.8916 183.3435,49.9256 183.3315,49.9586 L183.3315,49.9586 Z M190.1645,52.7756 L181.4825,52.7756 C181.0415,52.7756 180.6265,52.5726 180.3635,52.2206 C180.0925,51.8706 180.0055,51.4156 180.1215,50.9936 C180.1215,50.9936 180.5895,49.2866 180.9455,48.0496 C181.1155,47.4486 181.6705,47.0286 182.2955,47.0286 C182.7805,47.0286 183.2795,47.0376 183.7845,47.0456 C184.2855,47.0556 184.7945,47.0636 185.3015,47.0636 C186.9285,47.0636 188.9325,46.9716 189.9015,46.2536 C190.0345,46.1536 190.1675,46.0086 190.2945,45.8316 C189.1865,46.2506 187.9675,46.4326 186.5095,46.4326 C183.8355,46.4326 182.4015,45.3486 181.6765,44.4386 C180.4615,42.9156 180.1805,40.6926 180.8315,37.8336 L182.2405,31.6256 C181.9845,31.5316 181.7575,31.3676 181.5925,31.1446 C181.3505,30.8126 181.2645,30.3916 181.3525,29.9916 L181.8365,27.8636 C181.9845,27.2236 182.5525,26.7666 183.2095,26.7666 L190.9655,26.7666 C191.3955,26.7666 191.7985,26.9646 192.0615,27.2956 C192.3335,27.6276 192.4345,28.0646 192.3425,28.4836 L190.2145,38.0276 C190.0375,38.7896 190.0615,39.1376 190.0815,39.2656 C190.1295,39.2546 190.2645,39.2776 190.5065,39.2776 C191.0365,39.2776 191.8475,39.2776 192.4945,36.4366 L194.4145,27.8676 C194.5595,27.2236 195.1275,26.7666 195.7855,26.7666 L202.2865,26.7666 C202.7145,26.7666 203.1205,26.9646 203.3855,27.2976 C203.6545,27.6336 203.7575,28.0706 203.6625,28.4896 L199.2305,47.8406 C198.5415,50.8396 194.9845,52.7756 190.1645,52.7756 L190.1645,52.7756 Z" id="Fill-42" fill="#FFFFFF"></path>
                <path d="M271.7555,34.5215 C272.2675,31.9915 271.4195,30.7715 269.8885,30.7715 C267.9485,30.7715 266.6125,31.8595 265.8505,34.5215 L271.7555,34.5215 Z M265.0945,37.8345 C264.6245,40.2115 265.0055,42.1265 267.0965,42.1265 C268.5315,42.1265 269.8845,41.0375 270.3455,39.6165 L276.5675,39.6165 C274.5175,43.6805 270.0915,45.0235 266.2705,45.0235 C261.0245,45.0235 257.6515,42.0235 258.8975,36.5225 C260.1155,31.1445 264.9275,27.7095 270.1785,27.7095 C276.2455,27.7095 278.9505,31.8945 277.5035,37.8345 L265.0945,37.8345 Z" id="Fill-44" fill="#FFFFFF"></path>
                <path d="M268.005,33.1143 L270.497,33.1143 C270.487,32.6933 270.409,32.4253 270.306,32.3063 C270.284,32.2743 270.206,32.1803 269.889,32.1803 C269.239,32.1803 268.574,32.3273 268.005,33.1143 L268.005,33.1143 Z M271.755,35.9313 L265.851,35.9313 C265.41,35.9313 264.995,35.7243 264.731,35.3693 C264.462,35.0193 264.376,34.5603 264.5,34.1343 C265.402,30.9693 267.218,29.3643 269.889,29.3643 C270.953,29.3643 271.877,29.7753 272.488,30.5213 C273.295,31.5073 273.51,32.9443 273.137,34.8023 C273.001,35.4593 272.422,35.9313 271.755,35.9313 L271.755,35.9313 Z M266.328,39.2433 C266.295,39.9553 266.412,40.3823 266.558,40.5623 C266.585,40.5983 266.681,40.7183 267.096,40.7183 C267.864,40.7183 268.682,40.0743 268.99,39.2433 L266.328,39.2433 Z M270.179,29.1173 C265.373,29.1173 261.296,32.2923 260.271,36.8353 C259.806,38.8603 260.048,40.4803 260.973,41.6393 C261.991,42.9133 263.872,43.6143 266.271,43.6143 C267.897,43.6143 271.393,43.3193 273.797,41.0263 L271.255,41.0263 C270.379,42.5413 268.793,43.5363 267.096,43.5363 C265.656,43.5363 264.821,42.8863 264.376,42.3463 C263.51,41.2963 263.288,39.6873 263.711,37.5623 C263.843,36.9013 264.421,36.4253 265.095,36.4253 L276.349,36.4253 C276.686,34.2523 276.338,32.4063 275.351,31.1523 C274.31,29.8203 272.519,29.1173 270.179,29.1173 L270.179,29.1173 Z M266.271,46.4323 C263.001,46.4323 260.338,45.3513 258.771,43.3963 C257.751,42.1153 256.698,39.8293 257.52,36.2103 C258.843,30.3783 264.052,26.2983 270.179,26.2983 C273.412,26.2983 275.968,27.3773 277.57,29.4113 C279.264,31.5623 279.723,34.6733 278.872,38.1673 C278.752,38.6623 278.38,39.0433 277.909,39.1863 C278.024,39.5333 277.994,39.9173 277.826,40.2533 C275.008,45.8313 268.805,46.4323 266.271,46.4323 L266.271,46.4323 Z" id="Fill-46" fill="#FFFFFF"></path>
                <path d="M291.2555,34.5215 C291.7575,31.9915 290.9165,30.7715 289.3915,30.7715 C287.4445,30.7715 286.1125,31.8595 285.3525,34.5215 L291.2555,34.5215 Z M284.5935,37.8345 C284.1215,40.2115 284.5055,42.1265 286.5965,42.1265 C288.0325,42.1265 289.3825,41.0375 289.8415,39.6165 L296.0665,39.6165 C294.0105,43.6805 289.5815,45.0235 285.7735,45.0235 C280.5235,45.0235 277.1415,42.0235 278.3965,36.5225 C279.6165,31.1445 284.4225,27.7095 289.6765,27.7095 C295.7395,27.7095 298.4525,31.8945 297.0055,37.8345 L284.5935,37.8345 Z" id="Fill-48" fill="#FFFFFF"></path>
                <path d="M287.5011,33.1143 L289.9891,33.1143 C289.9881,32.6933 289.9021,32.4253 289.8051,32.3063 C289.7761,32.2743 289.7021,32.1803 289.3921,32.1803 C288.7341,32.1803 288.0741,32.3273 287.5011,33.1143 L287.5011,33.1143 Z M291.2551,35.9313 L285.3531,35.9313 C284.9121,35.9313 284.4951,35.7243 284.2281,35.3733 C283.9611,35.0203 283.8721,34.5643 283.9981,34.1373 C284.8981,30.9693 286.7121,29.3643 289.3921,29.3643 C290.4651,29.3643 291.3601,29.7633 291.9761,30.5163 C292.7871,31.4963 293.0061,32.9383 292.6371,34.7973 C292.5051,35.4553 291.9301,35.9313 291.2551,35.9313 L291.2551,35.9313 Z M285.8281,39.2433 C285.7971,39.9553 285.9101,40.3853 286.0541,40.5623 C286.0901,40.5983 286.1881,40.7183 286.5961,40.7183 C287.3671,40.7183 288.1841,40.0743 288.4861,39.2433 L285.8281,39.2433 Z M289.6761,29.1173 C284.8781,29.1173 280.8011,32.2923 279.7711,36.8353 C279.3091,38.8603 279.5431,40.4773 280.4631,41.6343 C281.4841,42.9113 283.3701,43.6143 285.7731,43.6143 C287.3961,43.6143 290.8941,43.3193 293.2951,41.0263 L290.7491,41.0263 C289.8731,42.5253 288.2631,43.5363 286.5961,43.5363 C285.1591,43.5363 284.3251,42.8913 283.8771,42.3493 C283.0171,41.2963 282.7881,39.6873 283.2101,37.5623 C283.3441,36.9013 283.9201,36.4253 284.5931,36.4253 L295.8451,36.4253 C296.1821,34.2553 295.8431,32.4103 294.8561,31.1553 C293.8121,29.8203 292.0191,29.1173 289.6761,29.1173 L289.6761,29.1173 Z M285.7731,46.4323 C282.4961,46.4323 279.8271,45.3503 278.2651,43.3933 C277.2411,42.1093 276.1981,39.8233 277.0221,36.2073 C278.3471,30.3783 283.5511,26.2983 289.6761,26.2983 C292.9141,26.2983 295.4731,27.3783 297.0721,29.4173 C298.7641,31.5693 299.2221,34.6773 298.3721,38.1693 C298.2481,38.6653 297.8801,39.0453 297.4051,39.1863 C297.5191,39.5333 297.4891,39.9173 297.3201,40.2533 C294.5051,45.8313 288.3101,46.4323 285.7731,46.4323 L285.7731,46.4323 Z" id="Fill-50" fill="#FFFFFF"></path>
                <path d="M300.4928,30.3091 L299.2558,30.2201 L299.6788,28.1751 L306.9228,28.1751 L306.3348,30.7391 C308.2578,28.7721 310.0938,27.7091 312.5648,27.7091 C316.8688,27.7091 318.3288,30.2411 317.3048,34.7411 C317.3048,34.7411 316.1088,40.0281 315.8228,41.2511 C315.5458,42.4781 317.0388,42.4191 317.0388,42.4191 L316.5548,44.5531 L310.9398,44.5531 C308.3508,44.5531 309.0218,42.4771 309.0218,42.4771 L310.5728,35.2241 C310.9458,33.6011 310.8378,32.1661 308.9928,32.1661 C306.9948,32.1661 306.1648,33.4441 305.6948,35.5381 L303.7648,44.5531 L297.2658,44.5531 L300.4928,30.3091 Z" id="Fill-52" fill="#FFFFFF"></path>
                <path d="M299.0285,43.1451 L302.6255,43.1451 L304.3145,35.2441 C304.4665,34.5761 304.7965,33.1181 305.8035,32.0451 C305.7585,32.0221 305.7065,32.0021 305.6595,31.9781 C305.1065,31.6751 304.8215,31.0421 304.9625,30.4251 L305.1545,29.5831 L301.7005,29.5831 C301.8865,29.8951 301.9495,30.2661 301.8695,30.6221 L299.0285,43.1451 Z M310.3775,43.1011 C310.4355,43.1011 310.6195,43.1451 310.9405,43.1451 L315.0755,43.1451 C314.9925,43.0731 314.9195,42.9941 314.8455,42.9041 C314.4245,42.3711 314.2865,41.6731 314.4555,40.9351 C314.7355,39.7111 315.9305,34.4301 315.9305,34.4301 C316.2475,33.0411 316.4525,31.1661 315.6345,30.1411 C315.0915,29.4621 314.0575,29.1181 312.5655,29.1181 C311.0165,29.1181 309.7355,29.6131 308.3335,30.7941 C308.5435,30.7721 308.7605,30.7561 308.9925,30.7561 C310.3585,30.7561 311.1125,31.3381 311.5005,31.8261 C312.5075,33.0861 312.0855,34.9321 311.9505,35.5381 L310.3965,42.7691 C310.3885,42.8171 310.3775,42.8641 310.3625,42.9091 C310.3515,42.9521 310.3485,43.0681 310.3585,43.1071 C310.3565,43.1021 310.3625,43.1011 310.3775,43.1011 L310.3775,43.1011 Z M316.5545,45.9631 L310.9405,45.9631 C309.3045,45.9631 308.4755,45.2931 308.0595,44.7321 C307.3145,43.7061 307.5615,42.5011 307.6545,42.1381 L309.1965,34.9291 C309.4035,34.0231 309.3285,33.6761 309.2985,33.5901 C309.2715,33.5971 309.1795,33.5731 308.9925,33.5731 C308.1925,33.5731 307.5415,33.7411 307.0695,35.8471 L305.1415,44.8471 C305.0025,45.5001 304.4275,45.9631 303.7655,45.9631 L297.2655,45.9631 C296.8375,45.9631 296.4305,45.7671 296.1635,45.4341 C295.8935,45.0991 295.7945,44.6611 295.8865,44.2431 L298.7665,31.5471 C298.5195,31.4561 298.2955,31.2901 298.1315,31.0721 C297.8875,30.7501 297.7915,30.3351 297.8725,29.9351 L298.2965,27.8911 C298.4335,27.2361 299.0135,26.7671 299.6785,26.7671 L306.9225,26.7671 C307.3505,26.7671 307.7575,26.9641 308.0235,27.2981 C308.0675,27.3581 308.1075,27.4181 308.1495,27.4841 C309.5415,26.6761 310.9705,26.2981 312.5655,26.2981 C314.9555,26.2981 316.7345,27.0001 317.8355,28.3821 C319.0525,29.9071 319.3375,32.1511 318.6795,35.0521 C318.6795,35.0521 317.7225,39.2671 317.3205,41.0441 C317.6305,41.1151 317.9235,41.2861 318.1225,41.5391 C318.3925,41.8721 318.5075,42.3111 318.4135,42.7281 L317.9295,44.8651 C317.7825,45.5081 317.2135,45.9631 316.5545,45.9631 L316.5545,45.9631 Z" id="Fill-54" fill="#FFFFFF"></path>
                <path d="M323.1667,41.5303 C323.1667,42.7323 322.3127,43.5433 321.3047,43.5433 L321.3047,43.5363 C320.2647,43.5433 319.4277,42.7323 319.4277,41.5303 C319.4277,40.3263 320.2647,39.5283 321.3047,39.5283 C322.3127,39.5283 323.1667,40.3263 323.1667,41.5303 L323.1667,41.5303 Z M323.9237,41.5303 C323.9237,39.8763 322.6827,38.9163 321.3047,38.9163 C319.9107,38.9163 318.6677,39.8763 318.6677,41.5303 C318.6677,43.1813 319.9107,44.1483 321.3047,44.1483 C322.6827,44.1483 323.9237,43.1813 323.9237,41.5303 L323.9237,41.5303 Z M320.8687,41.7503 L321.1487,41.7503 L321.8047,42.9353 L322.5197,42.9353 L321.7977,41.7033 C322.1707,41.6763 322.4727,41.4923 322.4727,40.9683 C322.4727,40.3263 322.0477,40.1153 321.3147,40.1153 L320.2647,40.1153 L320.2647,42.9353 L320.8687,42.9353 L320.8687,41.7503 Z M320.8687,41.2713 L320.8687,40.5933 L321.2917,40.5933 C321.5207,40.5933 321.8307,40.6133 321.8307,40.9103 C321.8307,41.2163 321.6747,41.2713 321.3997,41.2713 L320.8687,41.2713 Z" id="Fill-56" fill="#FFFFFF"></path>
                <path d="M321.3048,45.5577 C318.9978,45.5577 317.2618,43.8257 317.2618,41.5307 C317.2618,39.2377 318.9978,37.5077 321.3048,37.5077 C323.6018,37.5077 325.3338,39.2377 325.3338,41.5307 C325.3338,43.8257 323.6018,45.5577 321.3048,45.5577" id="Fill-58" fill="#FFFFFF"></path>
                <path d="M119.1569,42.0298 C119.7689,42.1378 120.3839,42.2058 121.5909,42.2058 C127.5559,42.2058 129.0949,28.2848 128.8979,26.1128 C128.6259,23.1328 127.2039,22.6388 125.7149,22.6388 L123.7509,22.6388 L119.1569,42.0298 Z M112.9169,20.1518 L124.8109,20.1518 C132.5349,20.1518 137.8539,22.2938 137.0319,29.7408 C136.1979,37.1968 132.6769,44.6948 122.7759,44.6948 L108.8649,44.6948 L109.3479,42.4868 L110.5489,42.2778 L115.2389,22.5738 L112.4289,22.3268 L112.9169,20.1518 Z" id="Fill-60" fill="#EE3D42"></path>
                <path d="M226.3898,39.2774 C225.2108,38.4654 223.7438,38.0934 222.3048,38.0064 L221.7408,40.4574 C222.9878,40.6274 223.5168,41.2734 223.9888,42.2254 C223.5648,42.5054 223.1378,42.6444 222.6568,42.6444 C220.3598,42.6444 219.4018,41.3814 219.2498,39.7314 C219.0188,37.0704 221.5088,22.0294 226.3858,22.0294 C228.6848,22.0294 229.6338,23.2914 229.7778,24.9374 C229.9468,26.7954 228.7728,34.6844 226.3898,39.2774 L226.3898,39.2774 Z M235.5468,44.6544 C234.8848,44.9374 234.1878,45.2534 233.4208,45.2534 C231.4498,45.2534 231.4498,44.5404 230.5248,43.2414 C235.4528,40.5074 238.4878,34.9394 238.4878,28.5334 C238.4878,22.7284 233.9708,19.5404 226.4338,19.5404 C218.0358,19.5404 211.0888,27.2704 210.8688,34.9394 C210.6838,41.4434 213.8858,45.2354 223.0278,45.1334 C223.7158,45.1274 224.4378,45.1024 225.1118,44.9954 C226.2388,47.7284 227.1268,48.9004 230.8368,48.9004 C232.2888,48.9004 233.7288,48.5374 234.9288,47.8714 L235.5798,45.0464 L235.5468,44.6544 Z" id="Fill-62" fill="#EE3D42"></path>
                <path d="M148.3918,36.8697 C146.0118,38.1087 143.3198,37.5077 142.8168,40.0707 C142.6268,41.0497 143.2728,41.7277 144.5568,41.7277 C146.8268,41.7277 148.0068,39.5817 148.3918,36.8697 L148.3918,36.8697 Z M148.9038,44.5527 C147.1558,44.5527 147.4568,42.8027 147.4568,42.8027 C145.2238,44.5227 143.2368,45.0237 140.7948,45.0237 C137.7068,45.0237 135.3048,43.4907 136.0748,40.0847 C137.7688,32.6457 148.7578,36.0367 149.3508,32.9557 C149.7568,30.8597 149.2518,30.4677 147.7758,30.4677 C146.3858,30.4677 145.4168,31.4727 144.8898,33.2107 L138.6348,33.2107 C139.4288,29.7417 142.3508,27.7087 148.8288,27.7087 C156.5788,27.7087 156.3928,30.5827 155.5028,34.4877 L154.2438,40.2457 C154.0258,41.1827 153.8748,42.1607 155.7948,42.3347 L155.2528,44.5527 L148.9038,44.5527 Z" id="Fill-64" fill="#EE3D42"></path>
                <path d="M158.9953,44.5528 C156.5183,44.5528 157.1613,42.3738 157.1613,42.3738 L159.8663,30.4798 L158.3903,30.3918 L158.8773,28.1758 L166.8853,28.1758 C166.8853,28.1758 164.0663,40.6138 163.8283,41.6268 C163.6023,42.6368 165.2103,42.5308 165.2103,42.5308 L164.7533,44.5528 L158.9953,44.5528 Z M164.4443,26.3018 C168.2203,26.2868 167.8323,23.7338 167.8323,23.7338 C167.8323,23.7338 168.2403,21.2008 164.4443,21.2008 C160.7113,21.2008 161.0743,23.7338 161.0743,23.7338 C161.0743,23.7338 160.6753,26.3198 164.4443,26.3018 L164.4443,26.3018 Z" id="Fill-66" fill="#EE3D42"></path>
                <path d="M169.359,30.3707 L168.059,30.2187 L168.523,28.1757 L175.747,28.1757 L174.993,31.4897 L175.059,31.4897 C176.546,28.9257 178.415,27.7087 180.951,27.7087 C181.231,27.7087 181.501,27.7707 181.773,27.8017 L180.293,34.3067 C179.864,34.2397 179.427,34.1157 178.99,34.1157 C176.335,34.1157 174.712,35.3677 173.901,38.8987 L172.614,44.5527 L166.12,44.5527 L169.359,30.3707 Z" id="Fill-68" fill="#EE3D42"></path>
                <path d="M256.6486,40.6924 C256.2296,42.5804 258.0686,42.3674 258.0686,42.3674 L257.5666,44.5524 L252.0006,44.5524 C249.6706,44.5524 250.2836,42.1494 250.2836,42.1494 C248.1436,44.4004 246.4106,45.0234 243.7266,45.0234 C240.1616,45.0234 238.3456,42.8324 239.4106,38.1454 L241.1706,30.4004 L239.9356,30.3044 L240.4196,28.1754 L248.1786,28.1754 L246.0486,37.7194 C245.5326,39.9674 246.1556,40.6884 247.7106,40.6884 C249.5866,40.6884 250.5036,39.2824 251.0766,36.7504 L252.9906,28.1754 L259.4926,28.1754 C259.4926,28.1754 257.0686,38.7994 256.6486,40.6924" id="Fill-70" fill="#EE3D42"></path>
                <path d="M197.861,47.5269 C197.281,50.0429 193.935,51.3689 190.164,51.3689 L181.482,51.3689 C181.482,51.3689 181.945,49.6659 182.296,48.4369 C185.278,48.4369 188.87,48.7659 190.74,47.3829 C192.403,46.1539 193.076,42.1489 193.076,42.1489 C190.935,44.4009 189.2,45.0239 186.51,45.0239 C182.948,45.0239 181.132,42.8319 182.199,38.1459 L183.963,30.3999 L182.729,30.3049 L183.21,28.1749 L190.965,28.1749 L188.839,37.7189 C188.326,39.9679 188.943,40.6889 190.507,40.6889 C192.38,40.6889 193.294,39.2829 193.867,36.7499 L195.786,28.1749 L202.286,28.1749 C202.286,28.1749 198.437,45.0089 197.861,47.5269" id="Fill-72" fill="#EE3D42"></path>
                <path d="M271.7555,34.5215 C272.2675,31.9915 271.4195,30.7715 269.8885,30.7715 C267.9485,30.7715 266.6125,31.8595 265.8505,34.5215 L271.7555,34.5215 Z M265.0945,37.8345 C264.6245,40.2115 265.0055,42.1265 267.0965,42.1265 C268.5315,42.1265 269.8845,41.0375 270.3455,39.6165 L276.5675,39.6165 C274.5175,43.6805 270.0915,45.0235 266.2705,45.0235 C261.0245,45.0235 257.6515,42.0235 258.8975,36.5225 C260.1155,31.1445 264.9275,27.7095 270.1785,27.7095 C276.2455,27.7095 278.9505,31.8945 277.5035,37.8345 L265.0945,37.8345 Z" id="Fill-74" fill="#EE3D42"></path>
                <path d="M291.2555,34.5215 C291.7575,31.9915 290.9165,30.7715 289.3915,30.7715 C287.4445,30.7715 286.1125,31.8595 285.3525,34.5215 L291.2555,34.5215 Z M284.5935,37.8345 C284.1215,40.2115 284.5055,42.1265 286.5965,42.1265 C288.0325,42.1265 289.3825,41.0375 289.8415,39.6165 L296.0665,39.6165 C294.0105,43.6805 289.5815,45.0235 285.7735,45.0235 C280.5235,45.0235 277.1415,42.0235 278.3965,36.5225 C279.6165,31.1445 284.4225,27.7095 289.6765,27.7095 C295.7395,27.7095 298.4525,31.8945 297.0055,37.8345 L284.5935,37.8345 Z" id="Fill-76" fill="#EE3D42"></path>
                <path d="M300.4928,30.3091 L299.2558,30.2201 L299.6788,28.1751 L306.9228,28.1751 L306.3348,30.7391 C308.2578,28.7721 310.0938,27.7091 312.5648,27.7091 C316.8688,27.7091 318.3288,30.2411 317.3048,34.7411 C317.3048,34.7411 316.1088,40.0281 315.8228,41.2511 C315.5458,42.4781 317.0388,42.4191 317.0388,42.4191 L316.5548,44.5531 L310.9398,44.5531 C308.3508,44.5531 309.0218,42.4771 309.0218,42.4771 L310.5728,35.2241 C310.9458,33.6011 310.8378,32.1661 308.9928,32.1661 C306.9948,32.1661 306.1648,33.4441 305.6948,35.5381 L303.7648,44.5531 L297.2658,44.5531 L300.4928,30.3091 Z" id="Fill-78" fill="#EE3D42"></path>
                <path d="M323.1667,41.5303 C323.1667,42.7323 322.3127,43.5433 321.3047,43.5433 L321.3047,43.5363 C320.2647,43.5433 319.4277,42.7323 319.4277,41.5303 C319.4277,40.3263 320.2647,39.5283 321.3047,39.5283 C322.3127,39.5283 323.1667,40.3263 323.1667,41.5303 L323.1667,41.5303 Z M323.9237,41.5303 C323.9237,39.8763 322.6827,38.9163 321.3047,38.9163 C319.9107,38.9163 318.6677,39.8763 318.6677,41.5303 C318.6677,43.1813 319.9107,44.1483 321.3047,44.1483 C322.6827,44.1483 323.9237,43.1813 323.9237,41.5303 L323.9237,41.5303 Z M320.8687,41.7503 L321.1487,41.7503 L321.8047,42.9353 L322.5197,42.9353 L321.7977,41.7033 C322.1707,41.6763 322.4727,41.4923 322.4727,40.9683 C322.4727,40.3263 322.0477,40.1153 321.3147,40.1153 L320.2647,40.1153 L320.2647,42.9353 L320.8687,42.9353 L320.8687,41.7503 Z M320.8687,41.2713 L320.8687,40.5933 L321.2917,40.5933 C321.5207,40.5933 321.8307,40.6133 321.8307,40.9103 C321.8307,41.2163 321.6747,41.2713 321.3997,41.2713 L320.8687,41.2713 Z" id="Fill-80" fill="#EE3D42"></path>
            </g>
        </g>
    </g>
</svg>