<svg width="110" height="110" viewBox="0 0 110 110" fill="none" xmlns="http://www.w3.org/2000/svg">
<circle cx="55" cy="55" r="55" fill="white"/>
<rect x="80.5351" y="27.5" width="6.17295" height="27.7783" transform="rotate(45 80.5351 27.5)" fill="black"/>
<rect width="6.17295" height="27.7783" transform="matrix(-0.707107 0.707107 0.707107 0.707107 65.2578 27.5)" fill="black"/>
<rect x="43.2136" y="27.5" width="6.17295" height="27.7783" transform="rotate(45 43.2136 27.5)" fill="black"/>
<rect width="6.17295" height="27.7783" transform="matrix(-0.707107 0.707107 0.707107 0.707107 27.9364 27.5)" fill="black"/>
<path fill-rule="evenodd" clip-rule="evenodd" d="M26.1334 91.6735H82.5C79.4832 78.902 68.0098 69.3979 54.3167 69.3979C40.6236 69.3979 29.1502 78.902 26.1334 91.6735Z" fill="black"/>
</svg>
