<svg xmlns="http://www.w3.org/2000/svg" width="48" height="48" viewBox="0 0 48 48">
    <path fill="#FFF" d="M12.86 7.44c.14-.12.28-.24.38-.32C16.36 5.1 20 4 24 4c3.76 0 7.28 1 10.28 2.84.22.16.8.54 1.12.92C32.5 4.56 24 11.4 24 11.4c-3-2.26-5.66-3.8-7.68-4.4-1.7-.42-2.86 0-3.4.4m25.76 3.02c-.1-.1-.2-.2-.28-.3-.72-.8-1.64-1-2.4-.94-.78.24-4.2 1.46-8.4 5.44 0 0 4.74 4.6 7.64 9.3 2.9 4.7 4.62 8.4 3.56 13.54C42 33.9 44 29.18 44 24c0-5.24-2-10-5.32-13.58m-7.22 15.5c-1.3-1.44-3.2-3.5-5.74-6.02-.54-.54-1.12-1.1-1.72-1.7 0 0-.94.92-2.14 2.14-1.54 1.54-3.52 3.56-4.64 4.74-1.96 2.1-7.6 8.7-7.92 12.4 0 0-1.3-2.92 1.5-9.7 1.8-4.42 7.2-11.06 9.5-13.22 0 0-2.06-2.28-4.66-3.86l-.1-.06c-1.26-.74-2.62-1.32-3.94-1.4-1.34.1-2.18 1.08-2.18 1.08C6.06 13.9 4 18.7 4 24c0 5.304 2.107 10.391 5.858 14.142C13.608 41.892 18.696 44 24 44c5.86 0 11.14-2.52 14.8-6.54 0 0-.42-2.66-3.12-6.46-.62-.86-2.94-3.62-4.22-5.08z"/>
</svg>
