<svg width="56" height="56" viewBox="0 0 56 56" fill="none" xmlns="http://www.w3.org/2000/svg">
<circle cx="28" cy="28" r="28" fill="white"/>
<rect x="40.9997" y="14" width="3.14259" height="14.1417" transform="rotate(45 40.9997 14)" fill="#186608"/>
<rect width="3.14259" height="14.1417" transform="matrix(-0.707107 0.707107 0.707107 0.707107 33.2222 14)" fill="#186608"/>
<rect x="21.9997" y="14" width="3.14259" height="14.1417" transform="rotate(45 21.9997 14)" fill="#186608"/>
<rect width="3.14259" height="14.1417" transform="matrix(-0.707107 0.707107 0.707107 0.707107 14.2222 14)" fill="#186608"/>
<path fill-rule="evenodd" clip-rule="evenodd" d="M42 46.6701H13.3043C14.8401 40.1683 20.6811 35.3299 27.6521 35.3299C34.6232 35.3299 40.4642 40.1683 42 46.6701Z" fill="#186608"/>
</svg>
