<svg xmlns="http://www.w3.org/2000/svg" width="88" height="88" viewBox="0 0 88 88">
    <path fill="#00D500" d="M0 62.229L7.543 44 0 25.771l18.229-7.542L25.77 0 44 7.543 62.229 0l7.542 18.229L88 25.77 80.457 44 88 62.229 69.771 69.77 62.23 88 44 80.457 25.771 88 18.23 69.771 0 62.23m48.49 4.22v-8.98h-8.98v8.98h8.98m0-17.96V21.552h-8.98V48.49h8.98z"/>
</svg>
