<svg width="22" height="22" viewBox="0 0 22 22" fill="none" xmlns="http://www.w3.org/2000/svg">
<rect x="4.63605" y="0.393402" width="24" height="6" transform="rotate(45 4.63605 0.393402)" fill="white"/>
<rect x="21.6066" y="4.63605" width="24" height="6" transform="rotate(135 21.6066 4.63605)" fill="white"/>
</svg>
