<svg xmlns="http://www.w3.org/2000/svg" width="88" height="88" viewBox="0 0 88 88">
    <path fill="#00D500" d="M23.577 13.64c.256-.22.513-.44.696-.587C29.993 9.35 36.667 7.333 44 7.333c6.893 0 13.347 1.834 18.847 5.207.403.293 1.466.99 2.053 1.687C59.583 8.36 44 20.9 44 20.9c-5.5-4.143-10.377-6.967-14.08-8.067-3.117-.77-5.243 0-6.233.734m47.226 5.536c-.183-.183-.366-.366-.513-.55-1.32-1.466-3.007-1.833-4.4-1.723-1.43.44-7.7 2.677-15.4 9.973 0 0 8.69 8.434 14.007 17.05 5.316 8.617 8.47 15.4 6.526 24.824C77 62.15 80.667 53.497 80.667 44c0-9.607-3.667-18.333-9.754-24.897M57.677 47.52c-2.384-2.64-5.867-6.417-10.524-11.037-.99-.99-2.053-2.016-3.153-3.116 0 0-1.723 1.686-3.923 3.923-2.824 2.823-6.454 6.527-8.507 8.69-3.593 3.85-13.933 15.95-14.52 22.733 0 0-2.383-5.353 2.75-17.783 3.3-8.103 13.2-20.277 17.417-24.237 0 0-3.777-4.18-8.544-7.076l-.183-.11c-2.31-1.357-4.803-2.42-7.223-2.567-2.457.183-3.997 1.98-3.997 1.98C11.11 25.483 7.333 34.283 7.333 44c0 9.725 3.863 19.05 10.74 25.927 6.876 6.877 16.202 10.74 25.927 10.74 10.743 0 20.423-4.62 27.133-11.99 0 0-.77-4.877-5.72-11.844-1.136-1.576-5.39-6.636-7.736-9.313z"/>
</svg>
